module etiennepericat/simple-todo/server

go 1.12

require (
	github.com/dgrijalva/jwt-go v3.2.0+incompatible
	github.com/go-stack/stack v1.8.0 // indirect
	github.com/golang/snappy v0.0.1 // indirect
	github.com/google/go-cmp v0.3.1 // indirect
	github.com/gorilla/mux v1.7.3
	github.com/lib/pq v1.2.0
	github.com/stretchr/testify v1.3.0 // indirect
	github.com/tidwall/pretty v1.0.0 // indirect
	github.com/xdg/scram v0.0.0-20180814205039-7eeb5667e42c // indirect
	github.com/xdg/stringprep v1.0.0 // indirect
	go.mongodb.org/mongo-driver v1.0.4
	golang.org/x/crypto v0.0.0-20190701094942-4def268fd1a4
	golang.org/x/sync v0.0.0-20190423024810-112230192c58 // indirect
	golang.org/x/text v0.3.2 // indirect
)
